<svg width="500" height="500" xmlns="http://www.w3.org/2000/svg" xmlns:xhtml="http://www.w3.org/1999/xhtml" class="mainContent">
 <!-- Created with Product Designer Tool by Riaxe-->
 <defs>
  <mask id="distressMask0" height="500" width="500" y="0" x="0" patternUnits="userSpaceOnUse">
   <image height="500" width="500" y="0" x="0" xlink:href="#" xmlns:xlink="http://www.w3.org/1999/xlink"/>
  </mask>
  <image preserveAspectRatio="none" height="500" width="500" xlink:href="#" xmlns:xlink="http://www.w3.org/1999/xlink"/>
  <clipPath class="boundryClipPath" id="boundryClipPath0">
   <rect aHeight="11.69" aWidth="16.54" height="141" width="200" y="88.27991" x="143.72622" id="boundRectangle"/>
  </clipPath>
  <filter style="color-interpolation-filters:sRGB;" id="filter8483">
   <feColorMatrix type="matrix" id="feColorMatrix8485" result="colormatrix" values="0"/>
  </filter>
  <g type="patternG" xmlns:xlink="http://www.w3.org/1999/xlink"/>
 </defs>
 <g id="layer_background">
  <title style="color-interpolation-filters:sRGB;">background</title>
  <rect opacity="0" style="color-interpolation-filters:sRGB;" fill="#fff" stroke-width="0" stroke="#000000" fill-opacity="0" height="502" width="502" y="-1" x="-1" id="canvas_background"/>
  <g style="color-interpolation-filters:sRGB;" id="bleedM">
   <rect display="none" style="color-interpolation-filters: srgb; display: none;" stroke-width="0.5" stroke="#ff0000" fill="none" y="0" x="0" height="0" width="0" class="bleedRect" isbleed="false" id="cropM"/>
   <rect display="none" style="color-interpolation-filters:sRGB;" stroke-dasharray="3,3" stroke-width="0.5" stroke="#2B8F49" fill="none" y="0" x="0" height="0" width="0" class="bleedRect" id="safeM"/>
   <path display="none" style="color-interpolation-filters: srgb; display: none;" stroke="#ff0000" fill="none" ay="0" ax="0" y="0" x="0" aheight="0" awidth="0" height="0" width="0" class="bleedPath" isbleed="false" id="cropMMask"/>
   <path display="none" style="color-interpolation-filters:sRGB;" stroke-dasharray="5,5" stroke-width="2" stroke="#2B8F49" fill="none" ay="0" ax="0" y="0" x="0" aheight="0" awidth="0" height="0" width="0" class="bleedPath" id="safeMMask"/>
   <rect display="none" style="color-interpolation-filters:sRGB;" fill="#ff0000" y="0" x="0" height="0.5" width="0" class="bleedRect" id="hAlignTleft"/>
   <rect display="none" style="color-interpolation-filters:sRGB;" fill="#ff0000" y="0" x="0" height="0.5" width="0" class="bleedRect" id="hAlignBleft"/>
   <rect display="none" style="color-interpolation-filters:sRGB;" fill="#ff0000" y="0" x="0" height="0" width="0.5" class="bleedRect" id="vAlignBleft"/>
   <rect display="none" style="color-interpolation-filters:sRGB;" fill="#ff0000" y="0" x="0" height="0" width="0.5" class="bleedRect" id="vAlignTleft"/>
   <rect display="none" style="color-interpolation-filters:sRGB;" fill="#ff0000" y="0" x="0" height="0.5" width="0" class="bleedRect" id="hAlignTright"/>
   <rect display="none" style="color-interpolation-filters:sRGB;" fill="#ff0000" y="0" x="0" height="0.5" width="0" class="bleedRect" id="hAlignBright"/>
   <rect display="none" style="color-interpolation-filters:sRGB;" fill="#ff0000" y="0" x="0" height="0" width="0.5" class="bleedRect" id="vAlignTright"/>
   <rect display="none" style="color-interpolation-filters:sRGB;" fill="#ff0000" y="0" x="0" height="0" width="0.5" class="bleedRect" id="vAlignBright"/>
  </g>
 </g>
 <g clip-path="url(#boundryClipPath0)" id="layer_area_0">
  <title style="color-interpolation-filters:sRGB;">area_0</title>
  <g style="color-interpolation-filters:sRGB;" type="bg_area_0" id="background"/>
  <g style="color-interpolation-filters:sRGB;" type="bgptrn_area_0" id="pbgpattern"/>
  <g style="color-interpolation-filters:sRGB;" type="bgBrdr_area_0" id="backgroundBorder"/>
  <g xe_p="&amp;#35;&amp;#103;&amp;#81;&amp;#84;&amp;#19;&amp;#58;&amp;#122;&amp;#61;&amp;#93;&amp;#111;&amp;#9;&amp;#118;&amp;#43;&amp;#60;&amp;#26;&amp;#28;&amp;#19;&amp;#116;&amp;#33;&amp;#53;&amp;#93;&amp;#18;&amp;#11;&amp;#34;&amp;#40;&amp;#41;&amp;#89;&amp;#89;&amp;#95;&amp;#84;&amp;#61;&amp;#61;&amp;#76;&amp;#18;&amp;#29;&amp;#34;&amp;#32;&amp;#103;&amp;#2;&amp;#0;&amp;#29;&amp;#34;&amp;#33;&amp;#103;&amp;#2;&amp;#0;&amp;#29;&amp;#34;&amp;#44;&amp;#32;&amp;#64;&amp;#68;&amp;#112;&amp;#110;&amp;#59;&amp;#45;&amp;#87;&amp;#66;&amp;#19;&amp;#58;&amp;#122;&amp;#54;&amp;#76;&amp;#81;&amp;#67;&amp;#116;&amp;#122;&amp;#105;&amp;#26;&amp;#83;&amp;#94;&amp;#108;&amp;#55;&amp;#55;&amp;#75;&amp;#18;&amp;#11;&amp;#91;&amp;#122;&amp;#102;&amp;#10;&amp;#4;&amp;#4;&amp;#98;&amp;#61;&amp;#116;&amp;#26;&amp;#28;&amp;#19;&amp;#35;&amp;#60;&amp;#119;&amp;#9;&amp;#85;&amp;#0;&amp;#101;&amp;#122;&amp;#24;&amp;#20;&amp;#18;&amp;#66;&amp;#116;&amp;#42;&amp;#42;&amp;#83;&amp;#85;&amp;#102;&amp;#105;&amp;#60;&amp;#49;&amp;#80;&amp;#18;&amp;#11;&amp;#48;&amp;#116;&amp;#103;&amp;#94;&amp;#95;&amp;#95;&amp;#116;&amp;#122;&amp;#127;&amp;#67;&amp;#18;&amp;#93;&amp;#97;&amp;#58;&amp;#32;&amp;#84;&amp;#18;&amp;#11;&amp;#34;&amp;#26;&amp;#0;&amp;#122;&amp;#113;&amp;#98;&amp;#95;&amp;#7;&amp;#26;&amp;#26;&amp;#28;&amp;#19;&amp;#110;&amp;#57;&amp;#40;&amp;#93;&amp;#18;&amp;#11;&amp;#34;&amp;#26;&amp;#0;&amp;#122;&amp;#113;&amp;#98;&amp;#95;&amp;#7;&amp;#26;&amp;#26;&amp;#28;&amp;#19;&amp;#102;&amp;#57;&amp;#40;&amp;#81;&amp;#92;&amp;#72;&amp;#34;&amp;#98;&amp;#103;&amp;#122;&amp;#85;&amp;#83;&amp;#97;&amp;#43;&amp;#103;&amp;#20;&amp;#18;&amp;#65;&amp;#114;&amp;#49;&amp;#38;&amp;#93;&amp;#18;&amp;#11;&amp;#49;&amp;#116;&amp;#103;&amp;#28;&amp;#20;&amp;#89;&amp;#97;&amp;#43;&amp;#45;&amp;#115;&amp;#85;&amp;#72;&amp;#34;&amp;#98;&amp;#103;&amp;#87;&amp;#82;&amp;#91;&amp;#101;&amp;#59;&amp;#49;&amp;#2;&amp;#6;&amp;#8;&amp;#53;&amp;#122;&amp;#56;&amp;#20;&amp;#18;&amp;#87;&amp;#111;&amp;#54;&amp;#49;&amp;#107;&amp;#89;&amp;#75;&amp;#101;&amp;#122;&amp;#127;&amp;#10;&amp;#5;&amp;#29;&amp;#34;&amp;#62;&amp;#42;&amp;#86;&amp;#68;&amp;#102;&amp;#101;&amp;#49;&amp;#34;&amp;#80;&amp;#68;&amp;#19;&amp;#58;&amp;#122;&amp;#43;&amp;#87;&amp;#66;&amp;#92;&amp;#97;&amp;#52;&amp;#103;&amp;#20;&amp;#18;&amp;#87;&amp;#111;&amp;#54;&amp;#49;&amp;#107;&amp;#68;&amp;#72;&amp;#108;&amp;#61;&amp;#103;&amp;#2;&amp;#18;&amp;#95;&amp;#111;&amp;#42;&amp;#40;&amp;#89;&amp;#92;&amp;#19;&amp;#44;&amp;#122;&amp;#54;&amp;#76;&amp;#81;&amp;#69;&amp;#117;&amp;#43;&amp;#103;&amp;#2;&amp;#18;&amp;#80;&amp;#100;&amp;#60;&amp;#103;&amp;#20;&amp;#18;&amp;#69;&amp;#101;&amp;#32;&amp;#49;&amp;#26;&amp;#10;&amp;#19;&amp;#80;&amp;#52;&amp;#36;&amp;#81;&amp;#94;&amp;#17;&amp;#84;&amp;#61;&amp;#61;&amp;#76;&amp;#18;&amp;#29;&amp;#34;&amp;#44;&amp;#32;&amp;#64;&amp;#68;&amp;#117;&amp;#101;&amp;#59;&amp;#42;&amp;#74;&amp;#81;&amp;#69;&amp;#105;&amp;#55;&amp;#43;&amp;#26;&amp;#10;&amp;#19;&amp;#110;&amp;#55;&amp;#43;&amp;#93;&amp;#18;&amp;#29;&amp;#34;&amp;#54;&amp;#42;&amp;#119;&amp;#86;&amp;#125;&amp;#105;&amp;#54;&amp;#32;&amp;#75;&amp;#18;&amp;#11;&amp;#49;&amp;#116;&amp;#103;&amp;#84;&amp;#95;&amp;#82;&amp;#107;&amp;#8;&amp;#55;&amp;#87;&amp;#64;&amp;#84;&amp;#114;&amp;#44;&amp;#44;&amp;#93;&amp;#67;&amp;#19;&amp;#58;&amp;#35;&amp;#103;&amp;#76;&amp;#85;&amp;#73;&amp;#116;&amp;#29;&amp;#33;&amp;#81;&amp;#68;&amp;#19;&amp;#58;&amp;#62;&amp;#36;&amp;#84;&amp;#67;&amp;#84;&amp;#44;&amp;#122;&amp;#38;&amp;#87;&amp;#92;&amp;#94;&amp;#114;&amp;#29;&amp;#33;&amp;#81;&amp;#68;&amp;#19;&amp;#58;&amp;#62;&amp;#36;&amp;#84;&amp;#67;&amp;#84;&amp;#44;&amp;#122;&amp;#55;&amp;#93;&amp;#67;&amp;#88;&amp;#122;&amp;#61;&amp;#103;&amp;#2;&amp;#86;&amp;#80;&amp;#108;&amp;#43;&amp;#32;&amp;#20;&amp;#18;&amp;#92;&amp;#111;&amp;#46;&amp;#32;&amp;#26;&amp;#10;&amp;#87;&amp;#97;&amp;#52;&amp;#54;&amp;#93;&amp;#28;&amp;#19;&amp;#114;&amp;#55;&amp;#49;&amp;#89;&amp;#68;&amp;#84;&amp;#34;&amp;#98;&amp;#35;&amp;#89;&amp;#92;&amp;#66;&amp;#101;&amp;#116;&amp;#103;&amp;#94;&amp;#95;&amp;#95;&amp;#116;&amp;#27;&amp;#45;&amp;#89;&amp;#94;&amp;#86;&amp;#101;&amp;#122;&amp;#127;&amp;#94;&amp;#81;&amp;#93;&amp;#115;&amp;#61;&amp;#105;&amp;#26;&amp;#84;&amp;#84;&amp;#108;&amp;#61;&amp;#49;&amp;#93;&amp;#18;&amp;#11;&amp;#102;&amp;#57;&amp;#41;&amp;#75;&amp;#85;&amp;#76;&amp;#44;&amp;#122;&amp;#55;&amp;#89;&amp;#94;&amp;#85;&amp;#111;&amp;#53;&amp;#12;&amp;#92;&amp;#18;&amp;#11;&amp;#49;&amp;#109;&amp;#114;&amp;#14;&amp;#6;&amp;#7;&amp;#52;&amp;#111;&amp;#114;&amp;#11;&amp;#2;&amp;#6;&amp;#56;&amp;#116;&amp;#103;&amp;#74;&amp;#85;&amp;#66;&amp;#116;&amp;#42;&amp;#44;&amp;#91;&amp;#68;&amp;#116;&amp;#100;&amp;#49;&amp;#49;&amp;#26;&amp;#10;&amp;#87;&amp;#97;&amp;#52;&amp;#54;&amp;#93;&amp;#28;&amp;#19;&amp;#114;&amp;#61;&amp;#54;&amp;#76;&amp;#66;&amp;#88;&amp;#99;&amp;#44;&amp;#10;&amp;#76;&amp;#88;&amp;#84;&amp;#114;&amp;#30;&amp;#48;&amp;#86;&amp;#83;&amp;#69;&amp;#116;&amp;#49;&amp;#42;&amp;#86;&amp;#81;&amp;#93;&amp;#105;&amp;#44;&amp;#60;&amp;#26;&amp;#10;&amp;#87;&amp;#97;&amp;#52;&amp;#54;&amp;#93;&amp;#28;&amp;#19;&amp;#105;&amp;#43;&amp;#8;&amp;#77;&amp;#92;&amp;#69;&amp;#105;&amp;#40;&amp;#41;&amp;#93;&amp;#18;&amp;#11;&amp;#102;&amp;#57;&amp;#41;&amp;#75;&amp;#85;&amp;#29;&amp;#34;&amp;#49;&amp;#54;&amp;#72;&amp;#66;&amp;#84;&amp;#100;&amp;#61;&amp;#38;&amp;#87;&amp;#18;&amp;#11;&amp;#102;&amp;#57;&amp;#41;&amp;#75;&amp;#85;&amp;#29;&amp;#34;&amp;#57;&amp;#41;&amp;#84;&amp;#89;&amp;#86;&amp;#110;&amp;#53;&amp;#32;&amp;#86;&amp;#68;&amp;#19;&amp;#58;&amp;#122;&amp;#54;&amp;#76;&amp;#81;&amp;#67;&amp;#116;&amp;#122;&amp;#105;&amp;#26;&amp;#89;&amp;#66;&amp;#77;&amp;#45;&amp;#41;&amp;#76;&amp;#89;&amp;#93;&amp;#105;&amp;#54;&amp;#32;&amp;#26;&amp;#10;&amp;#87;&amp;#97;&amp;#52;&amp;#54;&amp;#93;&amp;#28;&amp;#19;&amp;#112;&amp;#42;&amp;#32;&amp;#124;&amp;#85;&amp;#82;&amp;#111;&amp;#11;&amp;#41;&amp;#118;&amp;#95;&amp;#19;&amp;#58;&amp;#104;&amp;#105;&amp;#26;&amp;#68;&amp;#84;&amp;#120;&amp;#44;&amp;#6;&amp;#80;&amp;#81;&amp;#67;&amp;#76;&amp;#61;&amp;#43;&amp;#26;&amp;#10;&amp;#0;&amp;#48;&amp;#116;&amp;#103;&amp;#91;&amp;#95;&amp;#93;&amp;#111;&amp;#42;&amp;#26;&amp;#93;&amp;#94;&amp;#86;&amp;#114;&amp;#57;&amp;#51;&amp;#93;&amp;#18;&amp;#11;&amp;#91;&amp;#122;&amp;#103;&amp;#101;&amp;#77;" scaled="true" pointer-events="bounding-box" id="xe_8vsy">
   <g id="xe_owvh">
    <path stroke-linecap="square" stroke-width="0" stroke="#d21e1e" id="xe_x4v6" pointer-events="bounding-box" fill="#245be1" d="M162.2152751387792,114.02274611598978 Q166.13946104065946,114.02274611598978 168.46193841116002,116.50539433962831 Q170.62424492852261,118.85990588075646 170.62424492852261,122.52781841761598 L170.62424492852261,127.70133697397242 Q170.62424492852261,131.22509574300776 168.1736308755117,133.7397781372739 Q165.70699973718695,136.2384434462262 162.2152751387792,136.2384434462262 L159.1079605879026,136.2384434462262 L159.1079605879026,149.6607609391881 L153.72621992246678,149.6607609391881 L153.72621992246678,114.02274611598978 L162.2152751387792,114.02274611598978 M165.4186922015386,122.60790384418496 Q165.4186922015386,121.21441742188463 164.58580376522116,120.36551190025338 Q163.7368982435899,119.51660637862216 162.34341182128958,119.51660637862216 L159.1079605879026,119.51660637862216 L159.1079605879026,130.9207711220456 L162.34341182128958,130.9207711220456 Q163.62477864639334,130.9207711220456 164.52173542396596,130.0077972591592 Q165.4186922015386,129.09482339627274 165.4186922015386,127.81345657116898 L165.4186922015386,122.60790384418496 zM189.57245685474447,149.6607609391881 L174.91682379262022,149.6607609391881 L174.91682379262022,114.02274611598978 L180.298564458056,114.02274611598978 L180.298564458056,144.3110544443799 L189.57245685474447,144.3110544443799 L189.57245685474447,149.6607609391881 zM200.17576733247807,141.47603034383783 L198.86236633674673,149.6607609391881 L193.25638647691778,149.6607609391881 L199.32686181084685,114.02274611598978 L206.71073814050726,114.02274611598978 L212.68511096255355,149.6607609391881 L207.0631140174108,149.6607609391881 L205.78174719230702,141.47603034383783 L200.17576733247807,141.47603034383783 M202.99477434770637,122.19145962602624 L200.99263868348174,136.2384434462262 L204.98089292661717,136.2384434462262 L202.99477434770637,122.19145962602624 zM222.5836696864801,149.6607609391881 L217.2019290210443,149.6607609391881 L217.2019290210443,114.02274611598978 L222.5836696864801,114.02274611598978 L222.5836696864801,149.6607609391881 zM233.44325352923445,113.9907119453622 L240.55483940856033,137.9362544894887 L240.55483940856033,113.9907119453622 L245.9365800739961,113.9907119453622 L245.9365800739961,149.6607609391881 L240.1544122757154,149.6607609391881 L232.77053594605496,126.82039728171358 L232.77053594605496,149.6607609391881 L227.3887952806192,149.6607609391881 L227.3887952806192,113.9907119453622 L233.44325352923445,113.9907119453622 zM259.0385558606821,119.40448678142556 L253.32045640365652,119.40448678142556 L253.32045640365652,114.02274611598978 L270.1063618125158,114.02274611598978 L270.1063618125158,119.40448678142556 L264.42029652611785,119.40448678142556 L264.42029652611785,149.6607609391881 L259.0385558606821,149.6607609391881 L259.0385558606821,119.40448678142556 zM274.430974847241,149.6607609391881 L274.430974847241,113.9907119453622 L289.7272913219171,113.9907119453622 L289.7272913219171,119.37245261079798 L279.81271551267673,119.37245261079798 L279.81271551267673,129.12685756690036 L287.052438074513,129.12685756690036 L287.052438074513,134.52461531764993 L279.81271551267673,134.52461531764993 L279.81271551267673,144.2790202737523 L289.7272913219171,144.2790202737523 L289.7272913219171,149.6607609391881 L274.430974847241,149.6607609391881 zM313.2563896478849,149.6607609391881 L307.4742218496042,149.6607609391881 L303.3578309239583,138.33668162233363 L299.1933887423711,149.6607609391881 L293.42723802940424,149.6607609391881 L300.4267043115335,131.73764247304925 L293.42723802940424,114.02274611598978 L299.3695766808229,114.02274611598978 L303.3578309239583,125.0264837265683 L307.2980339111524,114.02274611598978 L313.2563896478849,114.02274611598978 L306.2569233657556,131.73764247304925 L313.2563896478849,149.6607609391881 zM322.65841872708376,119.40448678142556 L316.9403192700582,119.40448678142556 L316.9403192700582,114.02274611598978 L333.72622467891745,114.02274611598978 L333.72622467891745,119.40448678142556 L328.0401593925195,119.40448678142556 L328.0401593925195,149.6607609391881 L322.65841872708376,149.6607609391881 L322.65841872708376,119.40448678142556 z"/>
   </g>
  </g>
  <g xe_p="&amp;#35;&amp;#103;&amp;#81;&amp;#84;&amp;#19;&amp;#58;&amp;#122;&amp;#61;&amp;#93;&amp;#111;&amp;#2;&amp;#115;&amp;#97;&amp;#51;&amp;#26;&amp;#28;&amp;#19;&amp;#116;&amp;#33;&amp;#53;&amp;#93;&amp;#18;&amp;#11;&amp;#34;&amp;#40;&amp;#41;&amp;#89;&amp;#89;&amp;#95;&amp;#84;&amp;#61;&amp;#61;&amp;#76;&amp;#18;&amp;#29;&amp;#34;&amp;#32;&amp;#103;&amp;#2;&amp;#0;&amp;#29;&amp;#34;&amp;#33;&amp;#103;&amp;#2;&amp;#0;&amp;#29;&amp;#34;&amp;#44;&amp;#32;&amp;#64;&amp;#68;&amp;#112;&amp;#110;&amp;#59;&amp;#45;&amp;#87;&amp;#66;&amp;#19;&amp;#58;&amp;#122;&amp;#54;&amp;#76;&amp;#81;&amp;#67;&amp;#116;&amp;#122;&amp;#105;&amp;#26;&amp;#83;&amp;#94;&amp;#108;&amp;#55;&amp;#55;&amp;#75;&amp;#18;&amp;#11;&amp;#91;&amp;#122;&amp;#102;&amp;#10;&amp;#4;&amp;#4;&amp;#98;&amp;#61;&amp;#116;&amp;#26;&amp;#28;&amp;#19;&amp;#35;&amp;#60;&amp;#119;&amp;#9;&amp;#85;&amp;#0;&amp;#101;&amp;#122;&amp;#24;&amp;#20;&amp;#18;&amp;#66;&amp;#116;&amp;#42;&amp;#42;&amp;#83;&amp;#85;&amp;#102;&amp;#105;&amp;#60;&amp;#49;&amp;#80;&amp;#18;&amp;#11;&amp;#48;&amp;#116;&amp;#103;&amp;#94;&amp;#95;&amp;#95;&amp;#116;&amp;#122;&amp;#127;&amp;#67;&amp;#18;&amp;#93;&amp;#97;&amp;#58;&amp;#32;&amp;#84;&amp;#18;&amp;#11;&amp;#34;&amp;#26;&amp;#0;&amp;#122;&amp;#113;&amp;#98;&amp;#95;&amp;#7;&amp;#26;&amp;#26;&amp;#28;&amp;#19;&amp;#110;&amp;#57;&amp;#40;&amp;#93;&amp;#18;&amp;#11;&amp;#34;&amp;#26;&amp;#0;&amp;#122;&amp;#113;&amp;#98;&amp;#95;&amp;#7;&amp;#26;&amp;#26;&amp;#28;&amp;#19;&amp;#102;&amp;#57;&amp;#40;&amp;#81;&amp;#92;&amp;#72;&amp;#34;&amp;#98;&amp;#103;&amp;#122;&amp;#85;&amp;#83;&amp;#97;&amp;#43;&amp;#103;&amp;#20;&amp;#18;&amp;#65;&amp;#114;&amp;#49;&amp;#38;&amp;#93;&amp;#18;&amp;#11;&amp;#49;&amp;#116;&amp;#103;&amp;#28;&amp;#20;&amp;#89;&amp;#97;&amp;#43;&amp;#45;&amp;#115;&amp;#85;&amp;#72;&amp;#34;&amp;#98;&amp;#103;&amp;#87;&amp;#82;&amp;#91;&amp;#101;&amp;#59;&amp;#49;&amp;#2;&amp;#6;&amp;#8;&amp;#53;&amp;#122;&amp;#56;&amp;#20;&amp;#18;&amp;#87;&amp;#111;&amp;#54;&amp;#49;&amp;#107;&amp;#89;&amp;#75;&amp;#101;&amp;#122;&amp;#127;&amp;#10;&amp;#5;&amp;#29;&amp;#34;&amp;#62;&amp;#42;&amp;#86;&amp;#68;&amp;#102;&amp;#101;&amp;#49;&amp;#34;&amp;#80;&amp;#68;&amp;#19;&amp;#58;&amp;#122;&amp;#43;&amp;#87;&amp;#66;&amp;#92;&amp;#97;&amp;#52;&amp;#103;&amp;#20;&amp;#18;&amp;#87;&amp;#111;&amp;#54;&amp;#49;&amp;#107;&amp;#68;&amp;#72;&amp;#108;&amp;#61;&amp;#103;&amp;#2;&amp;#18;&amp;#95;&amp;#111;&amp;#42;&amp;#40;&amp;#89;&amp;#92;&amp;#19;&amp;#44;&amp;#122;&amp;#54;&amp;#76;&amp;#81;&amp;#69;&amp;#117;&amp;#43;&amp;#103;&amp;#2;&amp;#18;&amp;#80;&amp;#100;&amp;#60;&amp;#103;&amp;#20;&amp;#18;&amp;#69;&amp;#101;&amp;#32;&amp;#49;&amp;#26;&amp;#10;&amp;#19;&amp;#80;&amp;#52;&amp;#36;&amp;#81;&amp;#94;&amp;#17;&amp;#84;&amp;#61;&amp;#61;&amp;#76;&amp;#18;&amp;#29;&amp;#34;&amp;#44;&amp;#32;&amp;#64;&amp;#68;&amp;#117;&amp;#101;&amp;#59;&amp;#42;&amp;#74;&amp;#81;&amp;#69;&amp;#105;&amp;#55;&amp;#43;&amp;#26;&amp;#10;&amp;#19;&amp;#110;&amp;#55;&amp;#43;&amp;#93;&amp;#18;&amp;#29;&amp;#34;&amp;#54;&amp;#42;&amp;#119;&amp;#86;&amp;#125;&amp;#105;&amp;#54;&amp;#32;&amp;#75;&amp;#18;&amp;#11;&amp;#49;&amp;#116;&amp;#103;&amp;#84;&amp;#95;&amp;#82;&amp;#107;&amp;#8;&amp;#55;&amp;#87;&amp;#64;&amp;#84;&amp;#114;&amp;#44;&amp;#44;&amp;#93;&amp;#67;&amp;#19;&amp;#58;&amp;#35;&amp;#103;&amp;#76;&amp;#85;&amp;#73;&amp;#116;&amp;#29;&amp;#33;&amp;#81;&amp;#68;&amp;#19;&amp;#58;&amp;#62;&amp;#36;&amp;#84;&amp;#67;&amp;#84;&amp;#44;&amp;#122;&amp;#38;&amp;#87;&amp;#92;&amp;#94;&amp;#114;&amp;#29;&amp;#33;&amp;#81;&amp;#68;&amp;#19;&amp;#58;&amp;#62;&amp;#36;&amp;#84;&amp;#67;&amp;#84;&amp;#44;&amp;#122;&amp;#55;&amp;#93;&amp;#67;&amp;#88;&amp;#122;&amp;#61;&amp;#103;&amp;#2;&amp;#86;&amp;#80;&amp;#108;&amp;#43;&amp;#32;&amp;#20;&amp;#18;&amp;#92;&amp;#111;&amp;#46;&amp;#32;&amp;#26;&amp;#10;&amp;#87;&amp;#97;&amp;#52;&amp;#54;&amp;#93;&amp;#28;&amp;#19;&amp;#114;&amp;#55;&amp;#49;&amp;#89;&amp;#68;&amp;#84;&amp;#34;&amp;#98;&amp;#35;&amp;#89;&amp;#92;&amp;#66;&amp;#101;&amp;#116;&amp;#103;&amp;#94;&amp;#95;&amp;#95;&amp;#116;&amp;#27;&amp;#45;&amp;#89;&amp;#94;&amp;#86;&amp;#101;&amp;#122;&amp;#127;&amp;#94;&amp;#81;&amp;#93;&amp;#115;&amp;#61;&amp;#105;&amp;#26;&amp;#84;&amp;#84;&amp;#108;&amp;#61;&amp;#49;&amp;#93;&amp;#18;&amp;#11;&amp;#102;&amp;#57;&amp;#41;&amp;#75;&amp;#85;&amp;#76;&amp;#44;&amp;#122;&amp;#55;&amp;#89;&amp;#94;&amp;#85;&amp;#111;&amp;#53;&amp;#12;&amp;#92;&amp;#18;&amp;#11;&amp;#49;&amp;#109;&amp;#114;&amp;#14;&amp;#6;&amp;#7;&amp;#52;&amp;#111;&amp;#114;&amp;#1;&amp;#6;&amp;#5;&amp;#54;&amp;#116;&amp;#103;&amp;#74;&amp;#85;&amp;#66;&amp;#116;&amp;#42;&amp;#44;&amp;#91;&amp;#68;&amp;#116;&amp;#100;&amp;#49;&amp;#49;&amp;#26;&amp;#10;&amp;#87;&amp;#97;&amp;#52;&amp;#54;&amp;#93;&amp;#28;&amp;#19;&amp;#114;&amp;#61;&amp;#54;&amp;#76;&amp;#66;&amp;#88;&amp;#99;&amp;#44;&amp;#10;&amp;#76;&amp;#88;&amp;#84;&amp;#114;&amp;#30;&amp;#48;&amp;#86;&amp;#83;&amp;#69;&amp;#116;&amp;#49;&amp;#42;&amp;#86;&amp;#81;&amp;#93;&amp;#105;&amp;#44;&amp;#60;&amp;#26;&amp;#10;&amp;#87;&amp;#97;&amp;#52;&amp;#54;&amp;#93;&amp;#28;&amp;#19;&amp;#105;&amp;#43;&amp;#8;&amp;#77;&amp;#92;&amp;#69;&amp;#105;&amp;#40;&amp;#41;&amp;#93;&amp;#18;&amp;#11;&amp;#102;&amp;#57;&amp;#41;&amp;#75;&amp;#85;&amp;#29;&amp;#34;&amp;#49;&amp;#54;&amp;#72;&amp;#66;&amp;#84;&amp;#100;&amp;#61;&amp;#38;&amp;#87;&amp;#18;&amp;#11;&amp;#102;&amp;#57;&amp;#41;&amp;#75;&amp;#85;&amp;#29;&amp;#34;&amp;#57;&amp;#41;&amp;#84;&amp;#89;&amp;#86;&amp;#110;&amp;#53;&amp;#32;&amp;#86;&amp;#68;&amp;#19;&amp;#58;&amp;#122;&amp;#54;&amp;#76;&amp;#81;&amp;#67;&amp;#116;&amp;#122;&amp;#105;&amp;#26;&amp;#89;&amp;#66;&amp;#77;&amp;#45;&amp;#41;&amp;#76;&amp;#89;&amp;#93;&amp;#105;&amp;#54;&amp;#32;&amp;#26;&amp;#10;&amp;#87;&amp;#97;&amp;#52;&amp;#54;&amp;#93;&amp;#28;&amp;#19;&amp;#112;&amp;#42;&amp;#32;&amp;#124;&amp;#85;&amp;#82;&amp;#111;&amp;#11;&amp;#41;&amp;#118;&amp;#95;&amp;#19;&amp;#58;&amp;#105;&amp;#105;&amp;#26;&amp;#68;&amp;#84;&amp;#120;&amp;#44;&amp;#6;&amp;#80;&amp;#81;&amp;#67;&amp;#76;&amp;#61;&amp;#43;&amp;#26;&amp;#10;&amp;#0;&amp;#48;&amp;#116;&amp;#103;&amp;#91;&amp;#95;&amp;#93;&amp;#111;&amp;#42;&amp;#26;&amp;#93;&amp;#94;&amp;#86;&amp;#114;&amp;#57;&amp;#51;&amp;#93;&amp;#18;&amp;#11;&amp;#91;&amp;#122;&amp;#103;&amp;#101;&amp;#77;" scaled="true" pointer-events="bounding-box" id="xe_3s9v">
   <g id="xe_bvh5">
    <path stroke-linecap="square" stroke-width="0" stroke="#d21e1e" id="xe_m7h4" pointer-events="bounding-box" fill="#245be1" d="M162.2152751387792,169.27881148464212 Q166.13946104065946,169.27881148464212 168.46193841116002,171.76145970828065 Q170.62424492852261,174.1159712494088 170.62424492852261,177.78388378626832 L170.62424492852261,182.95740234262476 Q170.62424492852261,186.4811611116601 168.1736308755117,188.99584350592625 Q165.70699973718695,191.49450881487854 162.2152751387792,191.49450881487854 L159.1079605879026,191.49450881487854 L159.1079605879026,204.91682630784044 L153.72621992246678,204.91682630784044 L153.72621992246678,169.27881148464212 L162.2152751387792,169.27881148464212 M165.4186922015386,177.8639692128373 Q165.4186922015386,176.47048279053698 164.58580376522116,175.62157726890572 Q163.7368982435899,174.7726717472745 162.34341182128958,174.7726717472745 L159.1079605879026,174.7726717472745 L159.1079605879026,186.17683649069795 L162.34341182128958,186.17683649069795 Q163.62477864639334,186.17683649069795 164.52173542396596,185.26386262781153 Q165.4186922015386,184.3508887649251 165.4186922015386,183.06952193982133 L165.4186922015386,177.8639692128373 zM189.57245685474447,204.91682630784044 L174.91682379262022,204.91682630784044 L174.91682379262022,169.27881148464212 L180.298564458056,169.27881148464212 L180.298564458056,199.56711981303224 L189.57245685474447,199.56711981303224 L189.57245685474447,204.91682630784044 zM200.17576733247807,196.73209571249018 L198.86236633674673,204.91682630784044 L193.25638647691778,204.91682630784044 L199.32686181084685,169.27881148464212 L206.71073814050726,169.27881148464212 L212.68511096255355,204.91682630784044 L207.0631140174108,204.91682630784044 L205.78174719230702,196.73209571249018 L200.17576733247807,196.73209571249018 M202.99477434770637,177.4475249946786 L200.99263868348174,191.49450881487854 L204.98089292661717,191.49450881487854 L202.99477434770637,177.4475249946786 zM222.5836696864801,204.91682630784044 L217.2019290210443,204.91682630784044 L217.2019290210443,169.27881148464212 L222.5836696864801,169.27881148464212 L222.5836696864801,204.91682630784044 zM233.44325352923445,169.24677731401454 L240.55483940856033,193.19231985814105 L240.55483940856033,169.24677731401454 L245.9365800739961,169.24677731401454 L245.9365800739961,204.91682630784044 L240.1544122757154,204.91682630784044 L232.77053594605496,182.07646265036593 L232.77053594605496,204.91682630784044 L227.3887952806192,204.91682630784044 L227.3887952806192,169.24677731401454 L233.44325352923445,169.24677731401454 zM259.0385558606821,174.6605521500779 L253.32045640365652,174.6605521500779 L253.32045640365652,169.27881148464212 L270.1063618125158,169.27881148464212 L270.1063618125158,174.6605521500779 L264.42029652611785,174.6605521500779 L264.42029652611785,204.91682630784044 L259.0385558606821,204.91682630784044 L259.0385558606821,174.6605521500779 zM274.430974847241,204.91682630784044 L274.430974847241,169.24677731401454 L289.7272913219171,169.24677731401454 L289.7272913219171,174.62851797945032 L279.81271551267673,174.62851797945032 L279.81271551267673,184.3829229355527 L287.052438074513,184.3829229355527 L287.052438074513,189.78068068630228 L279.81271551267673,189.78068068630228 L279.81271551267673,199.53508564240465 L289.7272913219171,199.53508564240465 L289.7272913219171,204.91682630784044 L274.430974847241,204.91682630784044 zM313.2563896478849,204.91682630784044 L307.4742218496042,204.91682630784044 L303.3578309239583,193.59274699098597 L299.1933887423711,204.91682630784044 L293.42723802940424,204.91682630784044 L300.4267043115335,186.9937078417016 L293.42723802940424,169.27881148464212 L299.3695766808229,169.27881148464212 L303.3578309239583,180.28254909522065 L307.2980339111524,169.27881148464212 L313.2563896478849,169.27881148464212 L306.2569233657556,186.9937078417016 L313.2563896478849,204.91682630784044 zM322.65841872708376,174.6605521500779 L316.9403192700582,174.6605521500779 L316.9403192700582,169.27881148464212 L333.72622467891745,169.27881148464212 L333.72622467891745,174.6605521500779 L328.0401593925195,174.6605521500779 L328.0401593925195,204.91682630784044 L322.65841872708376,204.91682630784044 L322.65841872708376,174.6605521500779 z"/>
   </g>
  </g>
 </g>
</svg>